{
  "payload": [
    { "id": 1, "subscription_id": 301, "is_active": false, "wait_for": 25 },
    { "id": 2, "subscription_id": 302, "is_active": true, "wait_for": 89 },
    { "id": 3, "subscription_id": 303, "is_active": true, "wait_for": 56 },
    { "id": 4, "subscription_id": 304, "is_active": true, "wait_for": 96 },
    { "id": 5, "subscription_id": 305, "is_active": true, "wait_for": 100 },
    { "id": 6, "subscription_id": 306, "is_active": true, "wait_for": 35 },
    { "id": 7, "subscription_id": 307, "is_active": false, "wait_for": 28 },
    { "id": 8, "subscription_id": 308, "is_active": true, "wait_for": 5 },
    { "id": 9, "subscription_id": 309, "is_active": false, "wait_for": 62 },
    { "id": 10, "subscription_id": 310, "is_active": true, "wait_for": 61 },
    { "id": 11, "subscription_id": 311, "is_active": true, "wait_for": 72 },
    { "id": 12, "subscription_id": 312, "is_active": false, "wait_for": 76 },
    { "id": 13, "subscription_id": 313, "is_active": true, "wait_for": 83 },
    { "id": 14, "subscription_id": 314, "is_active": false, "wait_for": 61 },
    { "id": 15, "subscription_id": 315, "is_active": true, "wait_for": 65 },
    { "id": 16, "subscription_id": 316, "is_active": true, "wait_for": 67 },
    { "id": 17, "subscription_id": 317, "is_active": false, "wait_for": 14 },
    { "id": 18, "subscription_id": 318, "is_active": false, "wait_for": 74 },
    { "id": 19, "subscription_id": 319, "is_active": true, "wait_for": 71 },
    { "id": 20, "subscription_id": 320, "is_active": false, "wait_for": 35 },
    { "id": 21, "subscription_id": 321, "is_active": false, "wait_for": 11 },
    { "id": 22, "subscription_id": 322, "is_active": false, "wait_for": 55 },
    { "id": 23, "subscription_id": 323, "is_active": false, "wait_for": 62 },
    { "id": 24, "subscription_id": 324, "is_active": false, "wait_for": 32 },
    { "id": 25, "subscription_id": 325, "is_active": false, "wait_for": 40 },
    { "id": 26, "subscription_id": 326, "is_active": true, "wait_for": 61 },
    { "id": 27, "subscription_id": 327, "is_active": true, "wait_for": 1 },
    { "id": 28, "subscription_id": 328, "is_active": true, "wait_for": 86 },
    { "id": 29, "subscription_id": 329, "is_active": true, "wait_for": 91 },
    { "id": 30, "subscription_id": 330, "is_active": false, "wait_for": 18 },
    { "id": 31, "subscription_id": 331, "is_active": false, "wait_for": 4 },
    { "id": 32, "subscription_id": 332, "is_active": false, "wait_for": 75 },
    { "id": 33, "subscription_id": 333, "is_active": false, "wait_for": 8 },
    { "id": 34, "subscription_id": 334, "is_active": false, "wait_for": 44 },
    { "id": 35, "subscription_id": 335, "is_active": false, "wait_for": 55 },
    { "id": 36, "subscription_id": 336, "is_active": true, "wait_for": 74 },
    { "id": 37, "subscription_id": 337, "is_active": false, "wait_for": 19 },
    { "id": 38, "subscription_id": 338, "is_active": true, "wait_for": 5 },
    { "id": 39, "subscription_id": 339, "is_active": false, "wait_for": 32 },
    { "id": 40, "subscription_id": 340, "is_active": true, "wait_for": 84 },
    { "id": 41, "subscription_id": 341, "is_active": false, "wait_for": 10 },
    { "id": 42, "subscription_id": 342, "is_active": false, "wait_for": 36 },
    { "id": 43, "subscription_id": 343, "is_active": false, "wait_for": 10 },
    { "id": 44, "subscription_id": 344, "is_active": false, "wait_for": 49 },
    { "id": 45, "subscription_id": 345, "is_active": false, "wait_for": 62 },
    { "id": 46, "subscription_id": 346, "is_active": false, "wait_for": 37 },
    { "id": 47, "subscription_id": 347, "is_active": false, "wait_for": 7 },
    { "id": 48, "subscription_id": 348, "is_active": true, "wait_for": 59 },
    { "id": 49, "subscription_id": 349, "is_active": false, "wait_for": 7 },
    { "id": 50, "subscription_id": 350, "is_active": true, "wait_for": 39 },
    { "id": 51, "subscription_id": 351, "is_active": true, "wait_for": 51 },
    { "id": 52, "subscription_id": 352, "is_active": false, "wait_for": 11 },
    { "id": 53, "subscription_id": 353, "is_active": false, "wait_for": 75 },
    { "id": 54, "subscription_id": 354, "is_active": false, "wait_for": 43 },
    { "id": 55, "subscription_id": 355, "is_active": false, "wait_for": 96 },
    { "id": 56, "subscription_id": 356, "is_active": false, "wait_for": 27 },
    { "id": 57, "subscription_id": 357, "is_active": true, "wait_for": 60 },
    { "id": 58, "subscription_id": 358, "is_active": false, "wait_for": 94 },
    { "id": 59, "subscription_id": 359, "is_active": false, "wait_for": 44 },
    { "id": 60, "subscription_id": 360, "is_active": true, "wait_for": 71 },
    { "id": 61, "subscription_id": 361, "is_active": true, "wait_for": 37 },
    { "id": 62, "subscription_id": 362, "is_active": false, "wait_for": 6 },
    { "id": 63, "subscription_id": 363, "is_active": false, "wait_for": 16 },
    { "id": 64, "subscription_id": 364, "is_active": true, "wait_for": 83 },
    { "id": 65, "subscription_id": 365, "is_active": true, "wait_for": 96 },
    { "id": 66, "subscription_id": 366, "is_active": false, "wait_for": 61 },
    { "id": 67, "subscription_id": 367, "is_active": true, "wait_for": 18 },
    { "id": 68, "subscription_id": 368, "is_active": false, "wait_for": 12 },
    { "id": 69, "subscription_id": 369, "is_active": true, "wait_for": 84 },
    { "id": 70, "subscription_id": 370, "is_active": false, "wait_for": 56 },
    { "id": 71, "subscription_id": 371, "is_active": false, "wait_for": 93 },
    { "id": 72, "subscription_id": 372, "is_active": false, "wait_for": 65 },
    { "id": 73, "subscription_id": 373, "is_active": false, "wait_for": 32 },
    { "id": 74, "subscription_id": 374, "is_active": false, "wait_for": 28 },
    { "id": 75, "subscription_id": 375, "is_active": false, "wait_for": 0 },
    { "id": 76, "subscription_id": 376, "is_active": false, "wait_for": 76 },
    { "id": 77, "subscription_id": 377, "is_active": false, "wait_for": 84 },
    { "id": 78, "subscription_id": 378, "is_active": true, "wait_for": 79 },
    { "id": 79, "subscription_id": 379, "is_active": false, "wait_for": 62 },
    { "id": 80, "subscription_id": 380, "is_active": false, "wait_for": 78 },
    { "id": 81, "subscription_id": 381, "is_active": false, "wait_for": 93 },
    { "id": 82, "subscription_id": 382, "is_active": true, "wait_for": 77 },
    { "id": 83, "subscription_id": 383, "is_active": false, "wait_for": 50 },
    { "id": 84, "subscription_id": 384, "is_active": false, "wait_for": 19 },
    { "id": 85, "subscription_id": 385, "is_active": true, "wait_for": 94 },
    { "id": 86, "subscription_id": 386, "is_active": false, "wait_for": 4 },
    { "id": 87, "subscription_id": 387, "is_active": false, "wait_for": 20 },
    { "id": 88, "subscription_id": 388, "is_active": false, "wait_for": 16 },
    { "id": 89, "subscription_id": 389, "is_active": true, "wait_for": 25 },
    { "id": 90, "subscription_id": 390, "is_active": false, "wait_for": 25 },
    { "id": 91, "subscription_id": 391, "is_active": false, "wait_for": 8 },
    { "id": 92, "subscription_id": 392, "is_active": false, "wait_for": 91 },
    { "id": 93, "subscription_id": 393, "is_active": false, "wait_for": 74 },
    { "id": 94, "subscription_id": 394, "is_active": true, "wait_for": 67 },
    { "id": 95, "subscription_id": 395, "is_active": true, "wait_for": 77 },
    { "id": 96, "subscription_id": 396, "is_active": false, "wait_for": 31 },
    { "id": 97, "subscription_id": 397, "is_active": true, "wait_for": 29 },
    { "id": 98, "subscription_id": 398, "is_active": true, "wait_for": 72 },
    { "id": 99, "subscription_id": 399, "is_active": true, "wait_for": 94 },
    { "id": 100, "subscription_id": 400, "is_active": true, "wait_for": 93 }
  ]
}
